{
    "title": "Oroboros Codex",
    "description": "Provides data formatting support for Oroboros Core.",
    "copyright": "2011-2018, all rights reserved.",
    "license": "MIT",
    "author": {
        "name": "Brian Dayhoff",
        "email": "mopsyd@me.com"
    },
    "package": {
        "type": "internal",
        "scope": "core",
        "version": "0.2.5",
        "repository": "https://bitbucket.org/oroborosframework/oroboros-core-releases.git",
        "composer": false,
        "website": "https://oroborosframework.bitbucket.io/core/",
        "documentation": "https://oroborosframework.bitbucket.io/core/api/0-2-5/"
    }
}
